<?xml version="1.0" encoding="utf-8"?>
<!-- Generator: Adobe Illustrator 21.0.0, SVG Export Plug-In . SVG Version: 6.00 Build 0)  -->
<svg version="1.1" id="Ebene_1" xmlns="http://www.w3.org/2000/svg" xmlns:xlink="http://www.w3.org/1999/xlink" x="0px" y="0px"
	 viewBox="0 0 566.9 283.5" style="enable-background:new 0 0 566.9 283.5;" xml:space="preserve">
<style type="text/css">
	.st0{fill:#E63312;}
	.st1{fill:#0080C9;}
</style>
<g>
	<path class="st0" d="M278,49.9c-47.9,0-86.8,39-86.8,86.8s39,86.8,86.8,86.8s86.8-39,86.8-86.8S325.9,49.9,278,49.9 M278,246.5
		c-60.5,0-109.7-49.2-109.7-109.7S217.5,27,278,27s109.7,49.2,109.7,109.7S338.5,246.5,278,246.5"/>
	<path class="st1" d="M337.5,141.9c-2.7,30.4-28.3,54.3-59.5,54.3c-31.2,0-56.8-23.9-59.5-54.3l23.6,0c2,18,17.3,32,35.8,32
		c18.5,0,33.9-14,35.8-32H337.5z"/>
	<path class="st1" d="M337.5,131.6c-2.7-30.4-28.3-54.3-59.5-54.3c-31.2,0-56.8,23.9-59.5,54.3l23.6,0c2-18,17.3-32,35.8-32
		c18.5,0,33.9,14,35.8,32H337.5z"/>
</g>
</svg>
